actividad04/simulation/qsim/actividad04.msim.vcd
$comment
	File created using the following command:
		vcd file actividad04.msim.vcd -direction
$end
$date
	Sun Feb 16 12:38:32 2020
$end
$version
	ModelSim Version 10.5b
$end
$timescale
	1ps
$end

$scope module adder8B_vlg_vec_tst $end
$var reg 8 ! a [7:0] $end
$var reg 8 " b [7:0] $end
$var reg 1 # entAcarreo $end
$var wire 1 $ salAcarreo $end
$var wire 1 % sum [7] $end
$var wire 1 & sum [6] $end
$var wire 1 ' sum [5] $end
$var wire 1 ( sum [4] $end
$var wire 1 ) sum [3] $end
$var wire 1 * sum [2] $end
$var wire 1 + sum [1] $end
$var wire 1 , sum [0] $end

$scope module i1 $end
$var wire 1 - gnd $end
$var wire 1 . vcc $end
$var wire 1 / unknown $end
$var tri1 1 0 devclrn $end
$var tri1 1 1 devpor $end
$var tri1 1 2 devoe $end
$var wire 1 3 entAcarreo~combout $end
$var wire 1 4 addr1|full1|half2|suma~0_combout $end
$var wire 1 5 addr1|full1|acarreo~0_combout $end
$var wire 1 6 addr1|full2|half2|suma~combout $end
$var wire 1 7 addr1|full2|acarreo~0_combout $end
$var wire 1 8 addr1|full3|half2|suma~combout $end
$var wire 1 9 addr1|full3|acarreo~0_combout $end
$var wire 1 : addr1|full4|half2|suma~combout $end
$var wire 1 ; addr1|full4|acarreo~0_combout $end
$var wire 1 < addr2|full1|half2|suma~combout $end
$var wire 1 = addr2|full1|acarreo~0_combout $end
$var wire 1 > addr2|full2|half2|suma~combout $end
$var wire 1 ? addr2|full2|acarreo~0_combout $end
$var wire 1 @ addr2|full3|half2|suma~combout $end
$var wire 1 A addr2|full3|acarreo~0_combout $end
$var wire 1 B addr2|full4|half2|suma~combout $end
$var wire 1 C addr2|full4|acarreo~0_combout $end
$var wire 1 D b~combout [7] $end
$var wire 1 E b~combout [6] $end
$var wire 1 F b~combout [5] $end
$var wire 1 G b~combout [4] $end
$var wire 1 H b~combout [3] $end
$var wire 1 I b~combout [2] $end
$var wire 1 J b~combout [1] $end
$var wire 1 K b~combout [0] $end
$var wire 1 L a~combout [7] $end
$var wire 1 M a~combout [6] $end
$var wire 1 N a~combout [5] $end
$var wire 1 O a~combout [4] $end
$var wire 1 P a~combout [3] $end
$var wire 1 Q a~combout [2] $end
$var wire 1 R a~combout [1] $end
$var wire 1 S a~combout [0] $end
$upscope $end
$upscope $end
$enddefinitions $end
#0
$dumpvars
b1 !
b0 "
0#
0$
1,
0+
0*
0)
0(
0'
0&
0%
0-
1.
x/
10
11
12
03
14
05
06
07
08
09
0:
0;
0<
0=
0>
0?
0@
0A
0B
0C
0K
0J
0I
0H
0G
0F
0E
0D
1S
0R
0Q
0P
0O
0N
0M
0L
$end
#20000
1#
13
15
04
16
0,
1+
#60000
0#
03
05
14
06
1,
0+
#80000
b0 !
b10000000 "
1D
0S
1B
04
1%
0,
#100000
b10 !
1R
16
1+
#160000
1#
13
14
1,
#180000
b0 !
0R
06
0+
#200000
b100 !
b0 "
0D
1Q
0B
18
0%
1*
#240000
b0 !
0Q
08
0*
#260000
b1000 !
b1000000 "
b1100000 "
b1110000 "
b1111000 "
b1111100 "
b1111110 "
b11111110 "
1J
1I
1H
1G
1F
1E
1D
1P
16
18
1;
1<
1>
1@
1B
1=
0<
1+
1*
1(
1'
1&
1%
1?
0>
0(
1A
0@
0'
1C
0B
0&
1$
0%
#300000
b0 !
0P
0;
1:
0=
1<
1)
0?
1>
1(
0A
1@
1'
0C
1B
1&
0$
1%
#320000
0#
03
04
0,
#340000
b10000 !
1O
1=
0<
1?
0>
0(
1A
0@
0'
1C
0B
0&
1$
0%
#420000
b10111110 "
b10011110 "
b10001110 "
b10000110 "
b10000010 "
b10000000 "
b0 "
b0 !
0O
0J
0I
0H
0G
0F
0E
0D
0=
06
08
0:
0?
1>
0A
1@
0C
1B
0>
0@
0B
0+
0*
0)
1'
1&
0$
1%
0'
0&
0%
#440000
b100000 !
1N
1>
1'
#500000
b1100000 !
b1000000 !
0N
1M
0>
1@
0'
1&
#540000
b10000 "
b11000 "
1H
1G
1:
1<
1)
1(
#600000
b11000000 !
b1000 "
b0 "
0H
0G
1L
0:
0<
1B
0)
0(
1%
#640000
b1 "
1K
14
1,
#660000
b10000000 !
b0 !
0M
0L
0@
0B
0&
0%
#680000
b10000000 !
1L
1B
1%
#720000
b10000001 !
b10000011 !
b10000111 !
b10001111 !
b10011111 !
b10111111 !
b1001 "
b11111111 !
1H
1S
1R
1Q
1P
1O
1N
1M
1;
15
04
16
18
1<
1>
1@
1=
0<
17
06
0,
1+
1*
1(
1'
1&
1?
0>
19
08
0(
0+
1A
0@
1:
0'
0*
1C
0B
0&
1)
1$
0%
#740000
b1000 "
0K
05
14
07
16
1,
09
18
1+
0:
1*
0)
#800000
b101000 "
b1111111 !
b1111110 !
b1111100 !
b1111000 !
b1110000 !
b1100000 !
b1000000 !
b0 !
0S
0R
0Q
0P
0O
0N
0M
0L
1F
04
06
08
0;
1:
0=
1<
0A
1@
0C
1B
0<
0?
1>
0B
0,
0+
0*
1)
1(
1&
0$
1%
0@
0(
1'
0%
0&
#860000
b100000 "
0H
0:
0)
#880000
b1 !
b11 !
b111 !
b1111 !
b11111 !
1S
1R
1Q
1P
1O
14
16
18
1:
1<
1,
1+
1*
1)
1(
#920000
b10011111 !
b10111111 !
b11111111 !
b11111110 !
b11111100 !
b11111000 !
b11110000 !
0S
0R
0Q
0P
1N
1M
1L
04
06
08
0:
1?
0>
1@
1B
1A
0@
0,
0+
0*
0)
0'
1&
1%
1C
0B
0&
1$
0%
#940000
b0 "
0F
0?
1>
0A
1@
1'
0C
1B
1&
0$
1%
